<?xml version="1.0" encoding="UTF-8" ?>
<svg viewBox="0,0,1024,929" preserveAspectRatio="xMidYMid" zoomAndPan="magnify"
	xmlns:dc="http://purl.org/dc/elements/1.1/"
	xmlns:cc="http://creativecommons.org/ns#"
	xmlns:rdf="http://www.w3.org/1999/02/22-rdf-syntax-ns#"
	xmlns:svg="http://www.w3.org/2000/svg"
	xmlns="http://www.w3.org/2000/svg">
<g>
<path d="M828.99,19.80 A19.58,19.58 359.66 0,0 794.43,20.00" fill="none" stroke="rgb(150, 150, 150)" />
<path d="M828.99,19.80 A19.58,19.58 359.66 0,0 863.55,19.60" fill="none" stroke="rgb(150, 150, 150)" />
<path d="M829.11,40.54 A19.58,19.58 359.66 0,0 794.55,40.74" fill="none" stroke="rgb(150, 150, 150)" />
<path d="M829.11,40.54 A19.58,19.58 359.66 0,0 863.67,40.33" fill="none" stroke="rgb(150, 150, 150)" />
</g>
<circle cx="939.35" cy="258.954" r="6.91199"  fill="none" stroke="lime" />
<circle cx="770.44" cy="293.516" r="6.91199"  fill="none" stroke="lime" />
<circle cx="950.171" cy="475.045" r="6.91199" fill="none" stroke="lime" />
<circle cx="756.055" cy="486.879" r="6.91199" fill="none" stroke="lime" />
<circle cx="659.771" cy="395.029" r="6.91199" fill="none" stroke="lime" />
<circle cx="563.791" cy="495.297" r="6.91199" fill="none" stroke="lime" />
<circle cx="212.372" cy="304.613" r="6.91199" fill="none" stroke="lime" />
<circle cx="784.127" cy="683.384" r="6.91199" fill="none" stroke="lime" />
<circle cx="878.479" cy="769.951" r="6.91199" fill="none" stroke="lime" />
<circle cx="564.101" cy="676.551" r="6.91199" fill="none" stroke="lime" />
<polygon points="694.16,893.02,692.23,879.52,704.86,877.71,706.79,891.21" fill="none" stroke="rgb(255, 127, 0)" />
<polygon points="684.05,904.80,679.47,869.34,712.23,865.11,716.81,900.57" fill="none" stroke="rgb(255, 127, 0)" />
<polygon points="125.94,892.92,123.63,864.33,152.47,862.00,154.77,890.60" fill="none" stroke="rgb(255, 127, 0)" />
<polygon points="132.41,885.28,130.49,870.89,145.47,868.90,147.39,883.29" fill="none" stroke="rgb(255, 127, 0)" />
<line x1="473.728" y1="668.63" x2="473.795" y2="594.099" stroke="lime" />
<line x1="533.142" y1="652.784" x2="564.101" y2="676.551" stroke="lime" />
<line x1="564.101" y1="676.551" x2="606.745" y2="678.784" stroke="lime" />
<line x1="606.745" y1="678.784" x2="648.532" y2="665.917" stroke="lime" />
<line x1="532.63" y1="526.795" x2="1024" y2="526.988" stroke="blue" stroke-dasharray="3.6,1.8" />
<line x1="530.88" y1="652.36" x2="533.405" y2="471.204" stroke="rgb(150, 150, 150)" />
<line x1="473.728" y1="668.63" x2="475.476" y2="501.736" stroke="rgb(150, 150, 150)" />
<polygon points="452.53,440.91,452.24,427.27,464.99,426.99,465.29,440.63" fill="none" stroke="rgb(255, 127, 0)" />
<polygon points="441.08,451.39,440.79,415.63,473.82,415.37,474.11,451.12" fill="none" stroke="rgb(255, 127, 0)" />
<line x1="353.492" y1="466.042" x2="347.03" y2="201.875" stroke="lime" />
<line x1="246.387" y1="591.67" x2="0" y2="601.474" stroke="lime" />
<line x1="349.078" y1="929.208" x2="327.993" y2="188.223" stroke="blue" stroke-dasharray="3.6,1.8" />
<line x1="327.993" y1="188.223" x2="321.874" y2="43.5042" stroke="rgb(240, 122, 0)" />
<line x1="475.156" y1="532.336" x2="532.63" y2="526.795" stroke="rgb(240, 122, 0)" />
<polyline points="475.16,532.34,0.00,534.23" fill="none" stroke="blue" stroke-dasharray="3.6,1.8" />
<line x1="843.598" y1="293.495" x2="960.235" y2="298.99" stroke="rgb(150, 150, 150)" />
<line x1="960.235" y1="298.99" x2="966.849" y2="402.151" stroke="rgb(150, 150, 150)" />
<line x1="966.849" y1="402.151" x2="837.179" y2="393.762" stroke="rgb(150, 150, 150)" />
<line x1="843.598" y1="293.495" x2="847.342" y2="152.185" stroke="rgb(150, 150, 150)" />
<line x1="808.651" y1="295.863" x2="806.243" y2="152.302" stroke="rgb(150, 150, 150)" />
<line x1="808.651" y1="295.863" x2="808.73" y2="395.712" stroke="rgb(150, 150, 150)" />
<line x1="808.73" y1="395.712" x2="837.179" y2="393.762" stroke="rgb(150, 150, 150)" />
<line x1="1024" y1="273.618" x2="994.47" y2="271.784" stroke="rgb(150, 150, 150)" />
<line x1="994.47" y1="271.784" x2="971.65" y2="464.116" stroke="rgb(150, 150, 150)" />
<line x1="971.65" y1="464.116" x2="1024" y2="468.342" stroke="rgb(150, 150, 150)" />
<line x1="475.156" y1="532.336" x2="457.755" y2="522.208" stroke="rgb(240, 122, 0)" />
<line x1="475.156" y1="532.336" x2="458.295" y2="543.341" stroke="rgb(240, 122, 0)" />
<line x1="532.63" y1="526.795" x2="550.567" y2="535.941" stroke="rgb(240, 122, 0)" />
<line x1="532.63" y1="526.795" x2="548.854" y2="514.871" stroke="rgb(240, 122, 0)" />
<line x1="327.993" y1="188.223" x2="318.296" y2="205.868" stroke="rgb(240, 122, 0)" />
<line x1="327.993" y1="188.223" x2="339.409" y2="204.808" stroke="rgb(240, 122, 0)" />
<line x1="321.874" y1="43.5042" x2="331.57" y2="25.8588" stroke="rgb(240, 122, 0)" />
<line x1="321.874" y1="43.5042" x2="310.457" y2="26.9197" stroke="rgb(240, 122, 0)" />
<line x1="630.052" y1="196.581" x2="629.6" y2="152.804" stroke="lime" />
<line x1="630.052" y1="196.581" x2="347.03" y2="201.875" stroke="lime" />
<line x1="679.764" y1="152.662" x2="659.771" y2="170.056" stroke="lime" />
<line x1="659.771" y1="170.056" x2="657.781" y2="469.201" stroke="lime" />
<line x1="475.476" y1="501.736" x2="475.785" y2="472.133" stroke="lime" />
<line x1="533.405" y1="471.204" x2="657.781" y2="469.201" stroke="lime" />
<line x1="475.785" y1="472.133" x2="353.492" y2="466.042" stroke="lime" />
<polyline points="473.73,668.63,412.63,671.38,414.64,929.21" fill="none" stroke="lime" />
<line x1="775.78" y1="702.251" x2="779.267" y2="929.208" stroke="lime" />
<line x1="775.78" y1="702.251" x2="714.839" y2="668.01" stroke="lime" />
<line x1="714.839" y1="668.01" x2="648.532" y2="665.917" stroke="lime" />
<circle cx="386.581" cy="585.672" r="6.91199" fill="none" stroke="rgb(255, 127, 0)" />
<circle cx="872.611" cy="169.537" r="6.91199" fill="none" stroke="rgb(255, 127, 0)" />
<circle cx="240.415" cy="583.673" r="6.91199" fill="none" stroke="rgb(105, 0, 0)" />
<polyline points="922.84,151.97,0.00,154.59" fill="none" stroke="rgb(150, 150, 150)" />
<polygon points="490.13,854.77,499.26,854.77,499.26,831.30,509.34,821.50,535.04,854.77,546.21,854.77,515.72,815.30,544.91,786.96,532.35,786.96,499.26,819.13,499.26,786.96,490.13,786.96" fill="none" stroke="silver" />
<g>
<polyline points="548.84,830.00,549.21,835.94,550.37,841.16,552.27,845.65,554.96,849.35,558.24,852.30,562.03,854.41,566.29,855.66,571.03,856.07,576.98,855.32,582.46,853.02,587.07,849.35,590.43,844.44,592.49,837.90,593.18,829.28,592.80,823.68,591.63,818.71,589.69,814.36,586.99,810.66,583.67,807.72,579.90,805.60,575.68,804.34,571.03,803.91,566.79,804.25,562.90,805.30,559.35,807.03,556.15,809.45,552.94,813.25,550.65,817.93,549.29,823.52,548.84,830.00" fill="none" stroke="silver" />
<polyline points="556.67,829.97,557.68,821.96,560.74,816.28,565.34,812.88,571.03,811.74,576.63,812.88,581.24,816.30,584.32,821.95,585.36,829.71,584.32,837.90,581.26,843.66,576.66,847.11,571.03,848.25,565.34,847.13,560.74,843.71,557.68,838.00,556.67,829.97" fill="none" stroke="silver" />
</g>
<g>
<polyline points="637.48,839.13,635.07,843.26,631.95,846.07,628.10,847.72,623.55,848.25,617.46,847.25,612.49,844.21,609.05,839.30,607.58,832.60,645.36,832.60,645.40,830.32,644.99,824.41,643.81,819.17,641.84,814.67,639.10,810.84,635.70,807.82,631.89,805.65,627.59,804.36,622.89,803.91,617.98,804.36,613.57,805.66,609.64,807.85,606.20,810.88,603.36,814.73,601.36,819.26,600.15,824.49,599.76,830.42,600.15,836.19,601.35,841.24,603.32,845.65,606.11,849.33,609.58,852.30,613.61,854.41,618.20,855.66,623.38,856.07,631.22,855.05,637.53,851.98,642.20,847.05,645.15,840.42,637.48,839.13" fill="none" stroke="silver" />
<polyline points="607.58,824.77,608.99,819.44,612.31,815.28,617.07,812.63,622.86,811.74,629.14,812.86,634.13,816.18,636.40,819.79,637.58,824.77,607.58,824.77" fill="none" stroke="silver" />
</g>
<polygon points="654.59,854.77,662.41,854.77,662.41,836.58,669.89,829.08,686.02,854.77,695.01,854.77,675.41,823.53,693.71,805.22,683.21,805.22,662.41,826.04,662.41,786.96,654.59,786.96" fill="none" stroke="silver" />
<g>
<polyline points="700.22,830.00,700.60,835.94,701.75,841.16,703.65,845.65,706.34,849.35,709.62,852.30,713.41,854.41,717.67,855.66,722.42,856.07,728.36,855.32,733.85,853.02,738.46,849.35,741.81,844.44,743.87,837.90,744.56,829.28,744.18,823.68,743.02,818.71,741.08,814.36,738.37,810.66,735.05,807.72,731.28,805.60,727.06,804.34,722.42,803.91,718.18,804.25,714.29,805.30,710.74,807.03,707.54,809.45,704.33,813.25,702.04,817.93,700.67,823.52,700.22,830.00" fill="none" stroke="silver" />
<polyline points="708.05,829.97,709.07,821.96,712.13,816.28,716.73,812.88,722.42,811.74,728.02,812.88,732.62,816.30,735.70,821.95,736.74,829.71,735.70,837.90,732.65,843.66,728.04,847.11,722.42,848.25,716.73,847.13,712.13,843.71,709.07,838.00,708.05,829.97" fill="none" stroke="silver" />
</g>
<g>
<polyline points="788.86,839.13,786.46,843.26,783.33,846.07,779.49,847.72,774.94,848.25,768.85,847.25,763.88,844.21,760.43,839.30,758.97,832.60,796.75,832.60,796.78,830.32,796.38,824.41,795.20,819.17,793.22,814.67,790.49,810.84,787.09,807.82,783.28,805.65,778.98,804.36,774.27,803.91,769.36,804.36,764.96,805.66,761.03,807.85,757.58,810.88,754.75,814.73,752.75,819.26,751.53,824.49,751.15,830.42,751.53,836.19,752.73,841.24,754.71,845.65,757.50,849.33,760.97,852.30,765.00,854.41,769.58,855.66,774.76,856.07,782.61,855.05,788.92,851.98,793.59,847.05,796.54,840.42,788.86,839.13" fill="none" stroke="silver" />
<polyline points="758.97,824.77,760.38,819.44,763.69,815.28,768.46,812.63,774.25,811.74,780.52,812.86,785.52,816.18,787.78,819.79,788.96,824.77,758.97,824.77" fill="none" stroke="silver" />
</g>
<polygon points="805.97,854.77,813.79,854.77,813.79,836.58,821.28,829.08,837.41,854.77,846.40,854.77,826.80,823.53,845.10,805.22,834.60,805.22,813.79,826.04,813.79,786.96,805.97,786.96" fill="none" stroke="silver" />
<polygon points="406.05,329.51,455.60,329.51,455.60,321.68,415.18,321.68,415.18,298.21,451.70,298.21,451.70,290.39,415.18,290.39,415.18,269.52,454.31,269.52,454.31,261.69,406.05,261.69" fill="none" stroke="silver" />
<g>
<polyline points="501.18,313.86,498.77,318.00,495.65,320.81,491.80,322.46,487.25,322.99,481.16,321.99,476.19,318.95,472.75,314.04,471.28,307.34,509.06,307.34,509.10,305.05,508.69,299.15,507.51,293.91,505.54,289.41,502.80,285.58,499.40,282.56,495.59,280.38,491.30,279.10,486.59,278.64,481.68,279.10,477.27,280.40,473.34,282.58,469.90,285.61,467.06,289.47,465.06,293.99,463.85,299.23,463.46,305.16,463.85,310.93,465.05,315.98,467.02,320.38,469.81,324.07,473.28,327.04,477.31,329.14,481.90,330.40,487.08,330.81,494.92,329.78,501.23,326.72,505.90,321.79,508.85,315.16,501.18,313.86" fill="none" stroke="silver" />
<polyline points="471.28,299.51,472.69,294.18,476.01,290.02,480.77,287.37,486.56,286.47,492.84,287.60,497.83,290.91,500.10,294.52,501.28,299.51,471.28,299.51" fill="none" stroke="silver" />
</g>
<polygon points="519.59,329.51,527.42,329.51,527.42,302.67,527.64,298.35,528.37,294.77,529.59,291.93,531.31,289.86,535.57,287.33,540.58,286.47,543.72,286.86,546.43,287.98,548.54,289.76,549.91,292.02,550.89,299.62,550.89,329.51,558.71,329.51,558.71,298.92,558.26,290.74,557.27,287.39,555.76,284.52,553.51,282.15,550.38,280.28,546.61,279.06,542.51,278.64,537.84,279.18,533.79,280.70,530.31,283.29,527.42,286.88,527.42,279.95,519.59,279.95" fill="none" stroke="silver" />
<g>
<polyline points="603.11,329.51,610.93,329.51,610.93,261.69,603.11,261.69,603.11,286.31,600.54,283.23,597.32,280.79,593.49,279.20,589.21,278.64,583.28,279.46,577.96,281.88,573.54,285.86,570.40,291.22,568.51,297.66,567.90,304.78,568.57,312.01,570.62,318.34,573.91,323.60,578.33,327.53,583.53,329.99,589.23,330.81,593.53,330.30,597.28,328.74,600.46,326.13,603.11,322.46,603.11,329.51" fill="none" stroke="silver" />
<polyline points="575.72,304.75,576.68,296.56,579.57,290.87,583.89,287.57,589.17,286.47,594.57,287.63,599.08,291.06,602.09,296.95,603.11,305.43,602.11,313.20,599.15,318.67,594.77,321.91,589.56,322.99,584.32,321.87,579.84,318.47,576.74,312.78,575.72,304.75" fill="none" stroke="silver" />
</g>
<polygon points="102.00,794.88,109.82,794.88,109.82,745.33,102.00,745.33,102.00,771.64,101.65,777.20,100.61,781.23,98.74,784.19,95.91,786.45,92.44,787.90,88.78,788.37,85.27,787.90,82.40,786.49,80.25,784.27,79.03,781.33,78.52,772.56,78.52,745.33,70.69,745.33,70.69,776.14,71.18,784.01,72.15,787.43,73.67,790.28,75.89,792.62,79.07,794.52,82.84,795.78,86.94,796.18,91.42,795.63,95.46,793.95,98.96,791.16,102.00,787.21" fill="none" stroke="silver" />
<polygon points="119.01,780.54,121.27,787.37,125.34,792.26,131.44,795.20,139.81,796.18,145.23,795.68,150.08,794.13,154.07,791.64,157.03,788.29,158.82,784.37,159.43,780.19,158.90,776.18,157.36,772.88,154.89,770.29,151.67,768.37,139.43,764.41,132.25,762.45,129.13,760.39,128.14,757.70,128.73,755.52,130.52,753.61,133.71,752.30,138.52,751.85,142.73,752.38,145.86,753.93,147.92,756.42,149.00,759.67,156.82,758.37,155.73,753.93,154.03,750.47,151.44,747.82,147.75,745.76,143.17,744.48,137.89,744.02,130.90,745.07,125.75,747.55,123.49,749.71,121.76,752.36,120.65,755.38,120.31,758.62,120.74,762.18,122.08,765.40,124.28,768.15,127.32,770.23,139.69,774.35,148.49,776.98,150.82,778.77,151.61,781.09,150.88,783.85,148.73,786.21,145.11,787.84,139.95,788.37,134.72,787.80,130.80,786.02,128.17,783.15,126.83,779.24" fill="none" stroke="silver" />
<text x="527.281" y="435.585" font-size="92.1599" stroke="rgb(165, 0, 165)" fill="rgb(165, 0, 165)">2</text>
<polyline points="0.00,53.13,862.05,51.04,953.65,44.80,1024.00,46.20" fill="none" stroke="blue" />
<polyline points="1024.00,19.17,1004.77,10.05,980.08,5.85,714.70,0.00,0.00,2.26" fill="none" stroke="blue" />
<polyline points="1024.00,105.24,0.00,109.50" fill="none" stroke="rgb(150, 150, 150)" />
<polyline points="258.22,929.21,246.39,591.67" fill="none" stroke="lime" />
<polyline points="922.84,151.97,1024.00,151.80" fill="none" stroke="rgb(150, 150, 150)" />
<line x1="4.76837e-007" y1="727.071" x2="0" y2="794.883" stroke="silver" />
<polyline points="0.00,794.88,1.61,794.88,1.61,734.89,19.45,794.88,29.43,794.88,47.26,734.89,47.26,794.88,56.38,794.88,56.38,727.07,41.71,727.07,27.57,773.84,24.43,784.61,21.54,774.68,7.15,727.07,0.00,727.07" fill="none" stroke="silver" />
</svg>
