<?xml version="1.0" encoding="UTF-8" ?>
<svg viewBox="0,0,1024,1020" preserveAspectRatio="xMidYMid" zoomAndPan="magnify"
	xmlns:dc="http://purl.org/dc/elements/1.1/"
	xmlns:cc="http://creativecommons.org/ns#"
	xmlns:rdf="http://www.w3.org/1999/02/22-rdf-syntax-ns#"
	xmlns:svg="http://www.w3.org/2000/svg"
	xmlns="http://www.w3.org/2000/svg">
<polygon points="670.82,672.08,668.59,662.29,679.18,659.88,681.41,669.67" fill="none" stroke="rgb(255, 127, 0)" stroke-width="0.50" />
<polygon points="664.24,684.21,657.00,655.19,684.79,648.27,692.02,677.29" fill="none" stroke="rgb(255, 127, 0)" stroke-width="0.50" />
<circle cx="353.252" cy="928.331" r="5.92867" fill="none" stroke="lime" stroke-width="0.50" />
<circle cx="306.095" cy="981.804" r="5.92867" fill="none" stroke="lime" stroke-width="0.50" />
<circle cx="867.07" cy="908.252" r="5.92867" fill="none" stroke="lime" stroke-width="0.50" />
<circle cx="625.517" cy="825.803" r="5.92867" fill="none" stroke="lime" stroke-width="0.50" />
<circle cx="885.926" cy="720.876" r="5.92867" fill="none" stroke="lime" stroke-width="0.50" />
<circle cx="944.413" cy="824.394" r="5.92867" fill="none" stroke="lime" stroke-width="0.50" />
<circle cx="299.436" cy="203.456" r="5.92867" fill="none" stroke="lime" stroke-width="0.50" />
<circle cx="212.941" cy="446.634" r="5.92867" fill="none" stroke="lime" stroke-width="0.50" />
<circle cx="291.892" cy="378.707" r="5.92867" fill="none" stroke="lime" stroke-width="0.50" />
<circle cx="132.518" cy="357.488" r="5.92867" fill="none" stroke="lime" stroke-width="0.50" />
<circle cx="146.997" cy="661.414" r="5.92867" fill="none" stroke="lime" stroke-width="0.50" />
<circle cx="53.4684" cy="124.089" r="5.92867" fill="none" stroke="lime" stroke-width="0.50" />
<polyline points="875.97,107.71,880.08,287.64,880.55,386.50" fill="none" stroke="blue" stroke-width="0.50" stroke-dasharray="4.0,2.0" />
<line x1="379.199" y1="274.517" x2="378.626" y2="229.981" stroke="rgb(255, 127, 0)" stroke-width="0.50" />
<line x1="389.965" y1="276.821" x2="386.686" y2="230.108" stroke="rgb(255, 127, 0)" stroke-width="0.50" />
<line x1="401.816" y1="275.821" x2="396.531" y2="230.851" stroke="rgb(255, 127, 0)" stroke-width="0.50" />
<line x1="410.593" y1="275.277" x2="406.478" y2="232.711" stroke="rgb(255, 127, 0)" stroke-width="0.50" />
<line x1="420.908" y1="274.505" x2="416.785" y2="228.043" stroke="rgb(255, 127, 0)" stroke-width="0.50" />
<line x1="376.863" y1="257.328" x2="423.011" y2="257.603" stroke="rgb(255, 127, 0)" stroke-width="0.50" />
<line x1="516.176" y1="273.483" x2="514.376" y2="236.418" stroke="rgb(255, 127, 0)" stroke-width="0.50" />
<line x1="523.018" y1="272.596" x2="521.313" y2="232.753" stroke="rgb(255, 127, 0)" stroke-width="0.50" />
<line x1="547.556" y1="266.452" x2="543.198" y2="226.938" stroke="rgb(255, 127, 0)" stroke-width="0.50" />
<line x1="540.791" y1="269.149" x2="537.792" y2="226.481" stroke="rgb(255, 127, 0)" stroke-width="0.50" />
<line x1="534.495" y1="270.332" x2="532.314" y2="228.108" stroke="rgb(255, 127, 0)" stroke-width="0.50" />
<line x1="528.121" y1="269.704" x2="526.493" y2="231.672" stroke="rgb(255, 127, 0)" stroke-width="0.50" />
<line x1="322.431" y1="145.949" x2="327.515" y2="175.331" stroke="rgb(255, 127, 0)" stroke-width="0.50" />
<line x1="353.027" y1="147.691" x2="359.162" y2="181.977" stroke="rgb(255, 127, 0)" stroke-width="0.50" />
<line x1="370.735" y1="149.25" x2="375.766" y2="173.032" stroke="rgb(255, 127, 0)" stroke-width="0.50" />
<line x1="401.455" y1="147.345" x2="407.017" y2="176.987" stroke="rgb(255, 127, 0)" stroke-width="0.50" />
<line x1="426.27" y1="168.859" x2="423.315" y2="141.251" stroke="rgb(255, 127, 0)" stroke-width="0.50" />
<circle cx="499.953" cy="148.543" r="4.51409" fill="none" stroke="rgb(255, 127, 0)" stroke-width="0.50" />
<circle cx="518.946" cy="152.468" r="4.51409" fill="none" stroke="rgb(255, 127, 0)" stroke-width="0.50" />
<circle cx="533.822" cy="163.858" r="4.51409" fill="none" stroke="rgb(255, 127, 0)" stroke-width="0.50" />
<circle cx="547.692" cy="170.994" r="4.51409" fill="none" stroke="rgb(255, 127, 0)" stroke-width="0.50" />
<circle cx="562.953" cy="159.756" r="4.51409" fill="none" stroke="rgb(255, 127, 0)" stroke-width="0.50" />
<circle cx="597.327" cy="166.112" r="4.51409" fill="none" stroke="rgb(255, 127, 0)" stroke-width="0.50" />
<circle cx="582.665" cy="155.923" r="4.51409" fill="none" stroke="rgb(255, 127, 0)" stroke-width="0.50" />
<line x1="237.425" y1="798.495" x2="349.28" y2="797.024" stroke="blue" stroke-width="0.50" />
<line x1="349.28" y1="797.024" x2="495.196" y2="795.504" stroke="blue" stroke-width="0.50" />
<line x1="495.196" y1="795.504" x2="638.765" y2="793.906" stroke="blue" stroke-width="0.50" />
<line x1="639.881" y1="809.456" x2="496.773" y2="811.303" stroke="blue" stroke-width="0.50" />
<line x1="496.773" y1="811.303" x2="367.913" y2="815.503" stroke="blue" stroke-width="0.50" />
<line x1="367.913" y1="815.503" x2="258.233" y2="815.166" stroke="blue" stroke-width="0.50" />
<line x1="690.245" y1="813.472" x2="875.465" y2="816.542" stroke="blue" stroke-width="0.50" />
<line x1="875.465" y1="816.542" x2="1024" y2="816.626" stroke="blue" stroke-width="0.50" />
<line x1="1024" y1="796.942" x2="911.336" y2="797.751" stroke="blue" stroke-width="0.50" />
<line x1="911.336" y1="797.751" x2="801.696" y2="796.24" stroke="blue" stroke-width="0.50" />
<line x1="801.696" y1="796.24" x2="695.535" y2="796.019" stroke="blue" stroke-width="0.50" />
<line x1="128.552" y1="740.22" x2="177.585" y2="697.551" stroke="lime" stroke-width="0.50" />
<line x1="177.585" y1="697.551" x2="217.645" y2="640.572" stroke="lime" stroke-width="0.50" />
<line x1="217.645" y1="640.572" x2="222.999" y2="546.456" stroke="lime" stroke-width="0.50" />
<line x1="222.999" y1="546.456" x2="246.23" y2="476.685" stroke="lime" stroke-width="0.50" />
<line x1="246.23" y1="476.685" x2="357.811" y2="453.023" stroke="lime" stroke-width="0.50" />
<line x1="357.811" y1="453.023" x2="558.354" y2="457.496" stroke="lime" stroke-width="0.50" />
<line x1="558.354" y1="457.496" x2="680.382" y2="465.131" stroke="lime" stroke-width="0.50" />
<line x1="680.382" y1="465.131" x2="741.527" y2="507.462" stroke="lime" stroke-width="0.50" />
<line x1="741.527" y1="507.462" x2="789.016" y2="591.809" stroke="lime" stroke-width="0.50" />
<line x1="789.016" y1="591.809" x2="795.974" y2="683.453" stroke="lime" stroke-width="0.50" />
<line x1="795.974" y1="683.453" x2="746.949" y2="750.212" stroke="lime" stroke-width="0.50" />
<line x1="746.949" y1="750.212" x2="691.804" y2="764.224" stroke="lime" stroke-width="0.50" />
<line x1="621.643" y1="775.579" x2="416.617" y2="775.996" stroke="lime" stroke-width="0.50" />
<line x1="416.617" y1="775.996" x2="311.018" y2="771.784" stroke="lime" stroke-width="0.50" />
<line x1="311.018" y1="771.784" x2="250.187" y2="762.574" stroke="lime" stroke-width="0.50" />
<line x1="250.187" y1="762.574" x2="185.485" y2="740.28" stroke="lime" stroke-width="0.50" />
<line x1="185.485" y1="740.28" x2="163.196" y2="761.136" stroke="lime" stroke-width="0.50" />
<line x1="723.905" y1="853.409" x2="699.446" y2="833.562" stroke="rgb(150, 150, 150)" stroke-width="0.50" />
<line x1="699.446" y1="833.562" x2="688.501" y2="754.698" stroke="rgb(150, 150, 150)" stroke-width="0.50" />
<line x1="613.353" y1="857.979" x2="641.736" y2="845.285" stroke="rgb(150, 150, 150)" stroke-width="0.50" />
<line x1="641.736" y1="845.285" x2="644.959" y2="819.538" stroke="rgb(150, 150, 150)" stroke-width="0.50" />
<line x1="644.959" y1="819.538" x2="634.031" y2="774.755" stroke="rgb(150, 150, 150)" stroke-width="0.50" />
<line x1="634.031" y1="774.755" x2="621.643" y2="775.579" stroke="rgb(150, 150, 150)" stroke-width="0.50" />
<line x1="4.76837e-007" y1="814.196" x2="134.992" y2="810.135" stroke="blue" stroke-width="0.50" stroke-dasharray="4.0,2.0" />
<line x1="119.399" y1="810.655" x2="261.692" y2="806.068" stroke="rgb(240, 122, 0)" stroke-width="0.50" />
<line x1="629.178" y1="800.309" x2="709.999" y2="803.515" stroke="rgb(240, 122, 0)" stroke-width="0.50" />
<line x1="880.554" y1="386.496" x2="880.622" y2="797.327" stroke="blue" stroke-width="0.50" stroke-dasharray="4.0,2.0" />
<line x1="979.088" y1="788.685" x2="1018.44" y2="754.642" stroke="rgb(0, 90, 0)" stroke-width="0.50" stroke-dasharray="2.0,1.0" />
<line x1="1018.44" y1="754.642" x2="1024" y2="726.907" stroke="rgb(0, 90, 0)" stroke-width="0.50" stroke-dasharray="2.0,1.0" />
<line x1="1024" y1="629.781" x2="1017.82" y2="585.329" stroke="rgb(0, 90, 0)" stroke-width="0.50" stroke-dasharray="2.0,1.0" />
<line x1="1017.82" y1="585.329" x2="1017.47" y2="522.704" stroke="rgb(0, 90, 0)" stroke-width="0.50" stroke-dasharray="2.0,1.0" />
<line x1="1017.47" y1="522.704" x2="992.263" y2="430.638" stroke="rgb(0, 90, 0)" stroke-width="0.50" stroke-dasharray="2.0,1.0" />
<line x1="992.263" y1="430.638" x2="987.539" y2="409.805" stroke="rgb(0, 90, 0)" stroke-width="0.50" stroke-dasharray="2.0,1.0" />
<line x1="987.539" y1="409.805" x2="883.08" y2="404.84" stroke="rgb(0, 90, 0)" stroke-width="0.50" stroke-dasharray="2.0,1.0" />
<line x1="979.088" y1="788.685" x2="923.071" y2="787.845" stroke="rgb(0, 90, 0)" stroke-width="0.50" stroke-dasharray="2.0,1.0" />
<line x1="923.071" y1="787.845" x2="899.667" y2="753.473" stroke="rgb(0, 90, 0)" stroke-width="0.50" stroke-dasharray="2.0,1.0" />
<line x1="899.667" y1="753.473" x2="888.753" y2="715.665" stroke="rgb(0, 90, 0)" stroke-width="0.50" stroke-dasharray="2.0,1.0" />
<line x1="54.6586" y1="712.596" x2="62.4966" y2="510.871" stroke="lime" stroke-width="0.50" />
<line x1="62.4966" y1="510.871" x2="4.76837e-007" y2="509.059" stroke="lime" stroke-width="0.50" />
<line x1="119.399" y1="810.655" x2="104.474" y2="801.967" stroke="rgb(240, 122, 0)" stroke-width="0.50" />
<line x1="119.399" y1="810.655" x2="104.937" y2="820.094" stroke="rgb(240, 122, 0)" stroke-width="0.50" />
<line x1="629.178" y1="800.309" x2="614.252" y2="791.621" stroke="rgb(240, 122, 0)" stroke-width="0.50" />
<line x1="629.178" y1="800.309" x2="614.716" y2="809.748" stroke="rgb(240, 122, 0)" stroke-width="0.50" />
<line x1="261.692" y1="806.068" x2="277.077" y2="813.913" stroke="rgb(240, 122, 0)" stroke-width="0.50" />
<line x1="261.692" y1="806.068" x2="275.607" y2="795.841" stroke="rgb(240, 122, 0)" stroke-width="0.50" />
<line x1="709.999" y1="803.515" x2="725.384" y2="811.36" stroke="rgb(240, 122, 0)" stroke-width="0.50" />
<line x1="709.999" y1="803.515" x2="723.915" y2="793.288" stroke="rgb(240, 122, 0)" stroke-width="0.50" />
<circle cx="848.735" cy="339.785" r="5.92867" fill="none" stroke="lime" stroke-width="0.50" />
<circle cx="468.545" cy="836.98" r="5.92867" fill="none" stroke="lime" stroke-width="0.50" />
<circle cx="279.701" cy="835.731" r="5.92867" fill="none" stroke="lime" stroke-width="0.50" />
<circle cx="307.215" cy="680.826" r="5.92867" fill="none" stroke="lime" stroke-width="0.50" />
<polyline points="1024.00,400.90,781.79,401.87,0.00,412.59" fill="none" stroke="blue" stroke-width="0.50" stroke-dasharray="4.0,2.0" />
<circle cx="797.951" cy="755.147" r="5.92867" fill="none" stroke="rgb(255, 127, 0)" stroke-width="0.50" />
<line x1="517.283" y1="420.743" x2="511.398" y2="377.214" stroke="fuchsia" stroke-width="0.50" />
<line x1="511.398" y1="377.214" x2="500.121" y2="379.334" stroke="fuchsia" stroke-width="0.50" />
<line x1="500.121" y1="379.334" x2="505.256" y2="422.855" stroke="fuchsia" stroke-width="0.50" />
<line x1="505.256" y1="422.855" x2="517.283" y2="420.743" stroke="fuchsia" stroke-width="0.50" />
<circle cx="523.46" cy="426.245" r="5.92867" fill="none" stroke="lime" stroke-width="0.50" />
<circle cx="610.756" cy="365.263" r="5.92867" fill="none" stroke="lime" stroke-width="0.50" />
<circle cx="772.698" cy="208.091" r="5.92867" fill="none" stroke="lime" stroke-width="0.50" />
<text x="443.969" y="548.309" font-size="79.0489" font-family="Adobe Arabic" stroke="rgb(165, 0, 165)" fill="rgb(165, 0, 165)" stroke-width="0">7</text>
<polyline points="417.91,1020.26,534.93,900.32" fill="none" stroke="rgb(150, 150, 150)" stroke-width="0.50" />
<line x1="1024" y1="433.492" x2="1024" y2="428.681" stroke="lime" stroke-width="0.50" />
<path d="M1024.00,428.68 A5.93,5.93 28.48 0,0 1024.00,433.49" fill="none" stroke="lime" stroke-width="0.50" />
<polyline points="1024.00,901.08,534.93,900.32" fill="none" stroke="rgb(150, 150, 150)" stroke-width="0.50" />
<polyline points="473.35,903.92,254.69,894.64,185.84,858.69,95.75,772.66,60.45,753.64,0.00,750.75" fill="none" stroke="rgb(150, 150, 150)" stroke-width="0.50" />
<polyline points="1024.00,850.89,260.52,859.33,177.76,800.41,128.55,740.22,86.43,725.40,54.66,712.60,0.00,708.66" fill="none" stroke="rgb(150, 150, 150)" stroke-width="0.50" />
<polyline points="473.35,903.92,367.12,1020.26" fill="none" stroke="rgb(150, 150, 150)" stroke-width="0.50" />
<text x="238.262" y="88.93" font-size="59.2867" font-family="Arial" stroke="silver" fill="silver" stroke-width="0">Trappersbaan</text>
<text x="297.707" y="622.12" font-size="59.2867" font-family="Arial" stroke="silver" fill="silver" stroke-width="0">Kiekendief</text>
</svg>
